Final Project
…
testset <- read.csv(
  "../Data/Kaggle/test.csv",
  encoding = encoding,
  header = T
) %>%
  as_tibble()

trainset

## # A tibble: 7,613 x 5
##       id keyword location text                                            target
##    <int> <chr>   <chr>    <chr>                                            <int>
##  1     1 ""      ""       "Our Deeds are the Reason of this #earthquake ~      1
##  2     4 ""      ""       "Forest fire near La Ronge Sask. Canada"             1
##  3     5 ""      ""       "All residents asked to 'shelter in place' are~      1
##  4     6 ""      ""       "13,000 people receive #wildfires evacuation o~      1
##  5     7 ""      ""       "Just got sent this photo from Ruby #Alaska as~      1
##  6     8 ""      ""       "#RockyFire Update => California Hwy. 20 close~      1
##  7    10 ""      ""       "#flood #disaster Heavy rain causes flash floo~      1
##  8    13 ""      ""       "I'm on top of the hill and I can see a fire i~      1
##  9    14 ""      ""       "There's an emergency evacuation happening now~      1
## 10    15 ""      ""       "I'm afraid that the tornado is coming to our ~      1
## # ... with 7,603 more rows

testset

## # A tibble: 3,263 x 5
##       id keyword location text                                            target
##    <int> <chr>   <chr>    <chr>                                            <int>
##  1     0 ""      ""       Just happened a terrible car crash                   1
##  2     2 ""      ""       Heard about #earthquake is different cities, s~      1
##  3     3 ""      ""       there is a forest fire at spot pond, geese are~      1
##  4     9 ""      ""       Apocalypse lighting. #Spokane #wildfires             1
##  5    11 ""      ""       Typhoon Soudelor kills 28 in China and Taiwan        1
##  6    12 ""      ""       We're shaking...It's an earthquake                   1
##  7    21 ""      ""       They'd probably still show more life than Arse~      0
##  8    22 ""      ""       Hey! How are you?                                    0
##  9    27 ""      ""       What a nice hat?                                     0
## 10    29 ""      ""       Fuck off!                                            0
## # ... with 3,253 more rows
…
Data Cleaning

Mislabeled Data

Mislabeled data in train set

trainset %>%
  group_by(text, target) %>%
  count() %>%
  ungroup(target) %>%
  mutate(count = sum(n)) %>%
  filter(n != count) %>%
  arrange(text)

## # A tibble: 36 x 4
## # Groups:   text [18]
##    text                                                       target     n count
##    <chr>                                                       <int> <int> <int>
##  1 #Allah describes piling up #wealth thinking it would last~      0     2     3
##  2 #Allah describes piling up #wealth thinking it would last~      1     1     3
##  3 #foodscare #offers2go #NestleIndia slips into loss after ~      0     1     3
##  4 #foodscare #offers2go #NestleIndia slips into loss after ~      1     2     3
##  5 .POTUS #StrategicPatience is a strategy for #Genocide; re~      0     1     4
##  6 .POTUS #StrategicPatience is a strategy for #Genocide; re~      1     3     4
##  7 Caution: breathing may be hazardous to your health.             0     1     2
##  8 Caution: breathing may be hazardous to your health.             1     1     2
##  9 CLEARED:incident with injury:I-495  inner loop Exit 31 - ~      0     1     3
## 10 CLEARED:incident with injury:I-495  inner loop Exit 31 - ~      1     2     3
## # ... with 26 more rows
…
      link_count = str_count(.$text, 'http\\S+\\.\\S+/\\S\\s*'),
      text = str_replace_all(
        text,
        "http\\S+//\\S+\\.?\\S+\\S\\s*",
        ''
      )
    )
}
tidy_train <- trainset %>%
  extract_links()
tidy_test <- testset %>%
  extract_links()
tidy_train

## # A tibble: 7,613 x 7
##       id keyword location text                           target links link_count
##    <int> <chr>   <chr>    <chr>                           <int> <chr>      <int>
##  1     1 ""      ""       "Our Deeds are the Reason of ~      1 <NA>           0
##  2     4 ""      ""       "Forest fire near La Ronge Sa~      1 <NA>           0
##  3     5 ""      ""       "All residents asked to 'shel~      1 <NA>           0
##  4     6 ""      ""       "13,000 people receive #wildf~      1 <NA>           0
##  5     7 ""      ""       "Just got sent this photo fro~      1 <NA>           0
##  6     8 ""      ""       "#RockyFire Update => Califor~      1 <NA>           0
##  7    10 ""      ""       "#flood #disaster Heavy rain ~      1 <NA>           0
##  8    13 ""      ""       "I'm on top of the hill and I~      1 <NA>           0
##  9    14 ""      ""       "There's an emergency evacuat~      1 <NA>           0
## 10    15 ""      ""       "I'm afraid that the tornado ~      1 <NA>           0
## # ... with 7,603 more rows
…
      keyword = na_if(keyword, "")
    )
}
replace_new_line <- function(dataset){
  dataset %>% mutate(
    line_count = str_count(text, "\n") + 1,
    text = str_replace_all(text, "\n", " ")
  )
}
tidy_train <- tidy_train %>%
  replace_url_special_character() %>%
  replace_new_line()
tidy_train

## # A tibble: 7,613 x 8
##       id keyword location text                target links link_count line_count
##    <int> <chr>   <chr>    <chr>                <int> <chr>      <int>      <dbl>
##  1     1 <NA>    ""       "Our Deeds are the~      1 <NA>           0          1
##  2     4 <NA>    ""       "Forest fire near ~      1 <NA>           0          1
##  3     5 <NA>    ""       "All residents ask~      1 <NA>           0          1
##  4     6 <NA>    ""       "13,000 people rec~      1 <NA>           0          1
##  5     7 <NA>    ""       "Just got sent thi~      1 <NA>           0          1
##  6     8 <NA>    ""       "#RockyFire Update~      1 <NA>           0          1
##  7    10 <NA>    ""       "#flood #disaster ~      1 <NA>           0          1
##  8    13 <NA>    ""       "I'm on top of the~      1 <NA>           0          1
##  9    14 <NA>    ""       "There's an emerge~      1 <NA>           0          1
## 10    15 <NA>    ""       "I'm afraid that t~      1 <NA>           0          1
## # ... with 7,603 more rows
…
          )
        ),
        '#',
        ''
      ),
      tag_count = str_count(tolower(.$text), "#\\S+"),
      text = str_replace_all(text, "#", '')
    )
}
tidy_train <- tidy_train %>%
  extract_tags() %>%
  extract_at()
tidy_train

## # A tibble: 7,613 x 12
##       id keyword location text          target links link_count line_count tags 
##    <int> <chr>   <chr>    <chr>          <int> <chr>      <int>      <dbl> <chr>
##  1     1 <NA>    ""       "Our Deeds a~      1 <NA>           0          1 eart~
##  2     4 <NA>    ""       "Forest fire~      1 <NA>           0          1 <NA> 
##  3     5 <NA>    ""       "All residen~      1 <NA>           0          1 <NA> 
##  4     6 <NA>    ""       "13,000 peop~      1 <NA>           0          1 wild~
##  5     7 <NA>    ""       "Just got se~      1 <NA>           0          1 alas~
##  6     8 <NA>    ""       "RockyFire U~      1 <NA>           0          1 rock~
##  7    10 <NA>    ""       "flood disas~      1 <NA>           0          1 floo~
##  8    13 <NA>    ""       "I'm on top ~      1 <NA>           0          1 <NA> 
##  9    14 <NA>    ""       "There's an ~      1 <NA>           0          1 <NA> 
## 10    15 <NA>    ""       "I'm afraid ~      1 <NA>           0          1 <NA> 
## # ... with 7,603 more rows, and 3 more variables: tag_count <int>, at <chr>,
## #   at_count <int>
…
Keyword

Ratio of each keyword vs target

keyword_ratio <- tidy_train %>%
  filter(!is.na(keyword)) %>%
  group_by(keyword, target) %>%
  summarise(n = n()) %>%
  mutate(ratio = n / sum(n)) %>%
  ungroup() %>%
  arrange(desc(n), desc(ratio))
keyword_ratio

## # A tibble: 438 x 4
##    keyword    target     n ratio
##    <chr>       <int> <int> <dbl>
##  1 body bags       0    40 0.976
##  2 derailment      1    39 1    
##  3 wreckage        1    39 1    
##  4 outbreak        1    39 0.975
##  5 debris          1    37 1    
##  6 oil spill       1    37 0.974
##  7 typhoon         1    37 0.974
##  8 hellfire        0    37 0.949
##  9 harm            0    37 0.902
## 10 armageddon      0    37 0.881
## # ... with 428 more rows

Create disaster keyword and non-disaster keyword

count_threshold <- 20
ratio_threshold <- 0.8
disaster_keywords <- keyword_ratio %>%
  filter(n >= count_threshold & target == 1 & ratio >= ratio_threshold) %>%
  .$keyword
non_disaster_keywords <- keyword_ratio %>%
  filter(n >= count_threshold & target == 0 & ratio >= ratio_threshold) %>%
  .$keyword
disaster_keywords %>%
  as_tibble()

## # A tibble: 23 x 1
##    value          
##    <chr>          
##  1 derailment     
##  2 wreckage       
##  3 outbreak       
##  4 debris         
##  5 oil spill      
##  6 typhoon        
##  7 suicide bombing
##  8 rescuers       
##  9 suicide bomb   
## 10 evacuated      
## # ... with 13 more rows

non_disaster_keywords %>%
  as_tibble()

## # A tibble: 59 x 1
##    value     
##    <chr>     
##  1 body bags 
##  2 hellfire  
##  3 harm      
##  4 armageddon
##  5 ruin      
##  6 wrecked   
##  7 deluge    
##  8 explode   
##  9 fear      
## 10 siren     
## # ... with 49 more rows
…
tidy_train <- tidy_train %>%
  checkDisasterKeyword(disaster_keywords) %>%
  checkNonDisasterKeyword(non_disaster_keywords)
tidy_test <- tidy_test %>%
  checkDisasterKeyword(disaster_keywords) %>%
  checkNonDisasterKeyword(non_disaster_keywords)
tidy_train

## # A tibble: 7,613 x 14
##       id keyword location text          target links link_count line_count tags 
##    <int> <chr>   <chr>    <chr>          <int> <chr>      <int>      <dbl> <chr>
##  1     1 <NA>    ""       "Our Deeds a~      1 <NA>           0          1 eart~
##  2     4 <NA>    ""       "Forest fire~      1 <NA>           0          1 <NA> 
##  3     5 <NA>    ""       "All residen~      1 <NA>           0          1 <NA> 
##  4     6 <NA>    ""       "13,000 peop~      1 <NA>           0          1 wild~
##  5     7 <NA>    ""       "Just got se~      1 <NA>           0          1 alas~
##  6     8 <NA>    ""       "RockyFire U~      1 <NA>           0          1 rock~
##  7    10 <NA>    ""       "flood disas~      1 <NA>           0          1 floo~
##  8    13 <NA>    ""       "I'm on top ~      1 <NA>           0          1 <NA> 
##  9    14 <NA>    ""       "There's an ~      1 <NA>           0          1 <NA> 
## 10    15 <NA>    ""       "I'm afraid ~      1 <NA>           0          1 <NA> 
## # ... with 7,603 more rows, and 5 more variables: tag_count <int>, at <chr>,
## #   at_count <int>, disaster_keyword_count <int>,
## #   non_disaster_keyword_count <int>
Tag

Ratio of each tags vs target

tag_ratio <- tidy_train %>%
  filter(!is.na(tags)) %>%
  separate_rows(tags, sep = ',') %>%
  group_by(tags, target) %>%
  summarise(n = n()) %>%
  mutate(ratio = n / sum(n)) %>%
  ungroup() %>%
  arrange(desc(n), desc(ratio), tags)
tag_ratio

## # A tibble: 2,060 x 4
##    tags       target     n ratio
##    <chr>       <int> <int> <dbl>
##  1 news            1    56 0.737
##  2 hiroshima       1    22 1    
##  3 nowplaying      0    21 0.913
##  4 news            0    20 0.263
##  5 earthquake      1    19 1    
##  6 islam           0    18 0.783
##  7 hot             0    18 0.581
##  8 best            0    17 0.567
##  9 prebreak        0    17 0.567
## 10 jobs            0    14 1    
## # ... with 2,050 more rows

Create disaster tag and non-disaster tag

count_threshold <- 5
ratio_threshold <- 0.7
disaster_tag <- tag_ratio %>%
  filter(target == 1 & ratio >= ratio_threshold & n >= count_threshold) %>%
  .$tags
non_disaster_tag <- tag_ratio %>%
  filter(target == 0 & ratio >= ratio_threshold & n >= count_threshold) %>%
  .$tags
disaster_tag %>%
  as_tibble()

## # A tibble: 39 x 1
##    value     
##    <chr>     
##  1 news      
##  2 hiroshima 
##  3 earthquake
##  4 japan     
##  5 india     
##  6 yyc       
##  7 abstorm   
##  8 breaking  
##  9 worldnews 
## 10 sismo     
## # ... with 29 more rows

non_disaster_tag %>%
  as_tibble()

## # A tibble: 34 x 1
##    value     
##    <chr>     
##  1 nowplaying
##  2 islam     
##  3 jobs      
##  4 gbbo      
##  5 job       
##  6 hiring    
##  7 fashion   
##  8 beyhive   
##  9 dnb       
## 10 edm       
## # ... with 24 more rows
…
        T ~ non_disaster_tag_count
      )
    )
}
tidy_train <- tidy_train %>%
  countDisasterTag(disaster_tag) %>%
  countNonDisasterTag(non_disaster_tag)
  # checkDisasterTag(disaster_tag)
tidy_test <- tidy_test %>%
  countDisasterTag(disaster_tag) %>%
  countNonDisasterTag(non_disaster_tag)
  # checkDisasterTag(disaster_tag)
tidy_train

## # A tibble: 7,613 x 16
##       id keyword location text          target links link_count line_count tags 
##    <int> <chr>   <chr>    <chr>          <int> <chr>      <int>      <dbl> <chr>
##  1     1 <NA>    ""       "Our Deeds a~      1 <NA>           0          1 eart~
##  2     4 <NA>    ""       "Forest fire~      1 <NA>           0          1 <NA> 
##  3     5 <NA>    ""       "All residen~      1 <NA>           0          1 <NA> 
##  4     6 <NA>    ""       "13,000 peop~      1 <NA>           0          1 wild~
##  5     7 <NA>    ""       "Just got se~      1 <NA>           0          1 alas~
##  6     8 <NA>    ""       "RockyFire U~      1 <NA>           0          1 rock~
##  7    10 <NA>    ""       "flood disas~      1 <NA>           0          1 floo~
##  8    13 <NA>    ""       "I'm on top ~      1 <NA>           0          1 <NA> 
##  9    14 <NA>    ""       "There's an ~      1 <NA>           0          1 <NA> 
## 10    15 <NA>    ""       "I'm afraid ~      1 <NA>           0          1 <NA> 
## # ... with 7,603 more rows, and 7 more variables: tag_count <int>, at <chr>,
## #   at_count <int>, disaster_keyword_count <int>,
## #   non_disaster_keyword_count <int>, disaster_tag_count <int>,
## #   non_disaster_tag_count <int>

At

Ratio of each at vs target

at_ratio <- tidy_train %>%
  filter(!is.na(at)) %>%
  separate_rows(at, sep = ',') %>%
  group_by(at, target) %>%
  summarise(n = n()) %>%
  mutate(ratio = n / sum(n)) %>%
  arrange(desc(n), desc(ratio), at)
at_ratio

## # A tibble: 2,388 x 4
## # Groups:   at [2,331]
##    at            target     n ratio
##    <chr>          <int> <int> <dbl>
##  1 youtube            0    65 0.783
##  2 youtube            1    18 0.217
##  3 arianagrande       0    11 1    
##  4 foxnews            1     8 0.889
##  5 djicemoon          0     7 1    
##  6 justinbieber       0     7 1    
##  7 emmerdale          0     7 0.875
##  8 mikeparractor      0     6 1    
##  9 potus              1     6 0.667
## 10 invalid            0     5 1    
## # ... with 2,378 more rows
…
tidy_train <- tidy_train %>%
  countDisasterAt(disaster_at) %>%
  countNonDisasterAt(non_disaster_at)
  # checkDisasterAt(disaster_at)
tidy_test <- tidy_test %>%
  countDisasterAt(disaster_at) %>%
  countNonDisasterAt(non_disaster_at)
  # checkDisasterAt(tidy_test, disaster_at)
tidy_train

## # A tibble: 7,613 x 18
##       id keyword location text          target links link_count line_count tags 
##    <int> <chr>   <chr>    <chr>          <int> <chr>      <int>      <dbl> <chr>
##  1     1 <NA>    ""       "Our Deeds a~      1 <NA>           0          1 eart~
##  2     4 <NA>    ""       "Forest fire~      1 <NA>           0          1 <NA> 
##  3     5 <NA>    ""       "All residen~      1 <NA>           0          1 <NA> 
##  4     6 <NA>    ""       "13,000 peop~      1 <NA>           0          1 wild~
##  5     7 <NA>    ""       "Just got se~      1 <NA>           0          1 alas~
##  6     8 <NA>    ""       "RockyFire U~      1 <NA>           0          1 rock~
##  7    10 <NA>    ""       "flood disas~      1 <NA>           0          1 floo~
##  8    13 <NA>    ""       "I'm on top ~      1 <NA>           0          1 <NA> 
##  9    14 <NA>    ""       "There's an ~      1 <NA>           0          1 <NA> 
## 10    15 <NA>    ""       "I'm afraid ~      1 <NA>           0          1 <NA> 
## # ... with 7,603 more rows, and 9 more variables: tag_count <int>, at <chr>,
## #   at_count <int>, disaster_keyword_count <int>,
## #   non_disaster_keyword_count <int>, disaster_tag_count <int>,
## #   non_disaster_tag_count <int>, disaster_at_count <int>,
## #   non_disaster_at_count <int>
…
tidy_test <- tidy_test %>%
  extract_char_length() %>%
  extract_word_count() %>%
  extract_mean_word_length() %>%
  extract_unique_word_count() %>%
  extract_punctuation_count() %>%
  extract_stop_word_count()

tidy_train

## # A tibble: 7,613 x 24
##       id keyword location text          target links link_count line_count tags 
##    <int> <chr>   <chr>    <chr>          <int> <chr>      <int>      <dbl> <chr>
##  1     1 <NA>    ""       "Our Deeds a~      1 <NA>           0          1 eart~
##  2     4 <NA>    ""       "Forest fire~      1 <NA>           0          1 <NA> 
##  3     5 <NA>    ""       "All residen~      1 <NA>           0          1 <NA> 
##  4     6 <NA>    ""       "13,000 peop~      1 <NA>           0          1 wild~
##  5     7 <NA>    ""       "Just got se~      1 <NA>           0          1 alas~
##  6     8 <NA>    ""       "RockyFire U~      1 <NA>           0          1 rock~
##  7    10 <NA>    ""       "flood disas~      1 <NA>           0          1 floo~
##  8    13 <NA>    ""       "I'm on top ~      1 <NA>           0          1 <NA> 
##  9    14 <NA>    ""       "There's an ~      1 <NA>           0          1 <NA> 
## 10    15 <NA>    ""       "I'm afraid ~      1 <NA>           0          1 <NA> 
## # ... with 7,603 more rows, and 15 more variables: tag_count <int>, at <chr>,
## #   at_count <int>, disaster_keyword_count <int>,
## #   non_disaster_keyword_count <int>, disaster_tag_count <int>,
## #   non_disaster_tag_count <int>, disaster_at_count <int>,
## #   non_disaster_at_count <int>, char_length <int>, word_count <int>,
## #   mean_word_length <dbl>, unique_word_count <int>, punc_count <int>,
## #   stop_word_count <int>
…
unigrams <- tidy_train %>%
  unnest_tokens(unigram, text, token = "ngrams", n = 1) %>%
  filter(unigram != "NA") %>%
  filter(str_detect(unigram, "^[a-z]+$")) %>%
  filter(!(unigram %in% stop_words$word)) %>%
  group_by(unigram, target) %>%
  count() %>%
  ungroup(target) %>%
  mutate(count = sum(n)) %>%
  mutate(ratio = n/count) %>%
  arrange(desc(n), desc(ratio)) %>%
  ungroup()
unigrams

## # A tibble: 16,525 x 5
##    unigram    target     n count ratio
##    <chr>       <int> <int> <int> <dbl>
##  1 amp             0   209   344 0.608
##  2 fire            1   182   254 0.717
##  3 news            1   135   192 0.703
##  4 amp             1   135   344 0.392
##  5 disaster        1   121   158 0.766
##  6 body            0   115   129 0.891
##  7 suicide         1   112   119 0.941
##  8 california      1   111   117 0.949
##  9 police          1   108   143 0.755
## 10 people          1   105   197 0.533
## # ... with 16,515 more rows
…
